Introduction to Data Visualization
…
count: false
 
Peeping into the pipe
.panel1-flip_pipe-auto[

```r
*penguins
```
]
 
.panel2-flip_pipe-auto[

```
# A tibble: 344 x 8
   species island bill_length_mm bill_depth_mm flipper_length_~ body_mass_g
   <fct>   <fct>           <dbl>         <dbl>            <int>       <int>
 1 Adelie  Torge~           39.1          18.7              181        3750
 2 Adelie  Torge~           39.5          17.4              186        3800
 3 Adelie  Torge~           40.3          18                195        3250
 4 Adelie  Torge~           NA            NA                 NA          NA
 5 Adelie  Torge~           36.7          19.3              193        3450
 6 Adelie  Torge~           39.3          20.6              190        3650
 7 Adelie  Torge~           38.9          17.8              181        3625
 8 Adelie  Torge~           39.2          19.6              195        4675
 9 Adelie  Torge~           34.1          18.1              193        3475
10 Adelie  Torge~           42            20.2              190        4250
# ... with 334 more rows, and 2 more variables: sex <fct>, year <int>
```
…
Peeping into the pipe
.panel1-flip_pipe-auto[

```r
penguins %>%
* filter(species ==
*          "Gentoo")
```
]
 
.panel2-flip_pipe-auto[

```
# A tibble: 124 x 8
   species island bill_length_mm bill_depth_mm flipper_length_~ body_mass_g
   <fct>   <fct>           <dbl>         <dbl>            <int>       <int>
 1 Gentoo  Biscoe           46.1          13.2              211        4500
 2 Gentoo  Biscoe           50            16.3              230        5700
 3 Gentoo  Biscoe           48.7          14.1              210        4450
 4 Gentoo  Biscoe           50            15.2              218        5700
 5 Gentoo  Biscoe           47.6          14.5              215        5400
 6 Gentoo  Biscoe           46.5          13.5              210        4550
 7 Gentoo  Biscoe           45.4          14.6              211        4800
 8 Gentoo  Biscoe           46.7          15.3              219        5200
 9 Gentoo  Biscoe           43.3          13.4              209        4400
10 Gentoo  Biscoe           46.8          15.4              215        5150
# ... with 114 more rows, and 2 more variables: sex <fct>, year <int>
```
…
.panel2-flip_pipe-auto[

```
# A tibble: 124 x 9
   species island bill_length_mm bill_depth_mm flipper_length_~ body_mass_g
   <fct>   <fct>           <dbl>         <dbl>            <int>       <int>
 1 Gentoo  Biscoe           46.1          13.2              211        4500
 2 Gentoo  Biscoe           50            16.3              230        5700
 3 Gentoo  Biscoe           48.7          14.1              210        4450
 4 Gentoo  Biscoe           50            15.2              218        5700
 5 Gentoo  Biscoe           47.6          14.5              215        5400
 6 Gentoo  Biscoe           46.5          13.5              210        4550
 7 Gentoo  Biscoe           45.4          14.6              211        4800
 8 Gentoo  Biscoe           46.7          15.3              219        5200
 9 Gentoo  Biscoe           43.3          13.4              209        4400
10 Gentoo  Biscoe           46.8          15.4              215        5150
# ... with 114 more rows, and 3 more variables: sex <fct>, year <int>,
#   is_fluffy <dbl>
```
…
